…
> processed_general = process_data(raw_general)
`summarise()` ungrouping output (override with `.groups` argument)

> "Compare First Dataset to Normal"
[1] "Compare First Dataset to Normal"

> general_vs_normal = compareTwo(processed_test_normal, processed_general)
Joining, by = "Gene"

> general_vs_normal = rename(general_vs_normal, general_diff = diff)

> significant_genes_test_1 = compareTwoCategories(processed_test_normal, normal_test_data, processed_general, general_test_data, .01, "general_diff")
Joining, by = "Gene"
[1] "ALPHA 9.42507068803016e-06"
# A tibble: 1,060 x 2
   Gene          p_value
   <chr>           <dbl>
 1 MIR21        1.69e-74
 2 DM119512     1.82e-74
 3 AKR1C3       1.64e-67
 4 SELENBP1     1.82e-74
 5 PRELP        2.09e-74
 6 TSPY1        1.19e-30
 7 LOC100271702 1.69e-74
 8 LOC150622    1.87e-74
 9 S100A16      1.67e-74
10 GPNMB        1.67e-74
# ... with 1,050 more rows
…
> processed_confirm = process_data(raw_confirm)
`summarise()` ungrouping output (override with `.groups` argument)

> "Compare Second Dataset to Normal"
[1] "Compare Second Dataset to Normal"

> confirm_vs_normal = compareTwo(processed_test_normal, processed_confirm)
Joining, by = "Gene"

> confirm_vs_normal = rename(confirm_vs_normal, confirm_diff = diff)

> significant_genes_test_2 =  compareTwoCategories(processed_test_normal, normal_test_data, processed_confirm, confirm_test_data, .01, "confirm_diff")
Joining, by = "Gene"
[1] "ALPHA 8.01282051282051e-06"
# A tibble: 1,248 x 2
   Gene          p_value
   <chr>           <dbl>
 1 MIR21        1.55e-77
 2 DM119512     1.65e-77
 3 PRELP        1.55e-77
 4 LOC100271702 1.52e-77
 5 AKR1C3       3.67e-75
 6 S100A16      1.52e-77
 7 HRCT1        1.52e-77
 8 SELENBP1     1.53e-77
 9 GPNMB        1.52e-77
10 ANXA9        1.53e-77
# ... with 1,238 more rows
…
> significant_genes_test_1 = rename(significant_genes_test_1, p_value_test_1 = p_value)

> significant_genes_test_2 = rename(significant_genes_test_2, p_value_test_2 = p_value)

> joined_final_results = inner_join(significant_genes_test_1,significant_genes_test_2)
Joining, by = "Gene"

> joined = inner_join(joined_final_results, general_vs_normal)
Joining, by = "Gene"

> joined_final_results_confirmation_test = inner_join(joined, confirm_vs_normal)
Joining, by = "Gene"

> print(joined_final_results_confirmation_test)
# A tibble: 859 x 5
   Gene         p_value_test_1 p_value_test_2 general_diff confirm_diff
   <chr>                 <dbl>          <dbl>        <dbl>        <dbl>
 1 MIR21              1.69e-74       1.55e-77        0.607        0.678
 2 DM119512           1.82e-74       1.65e-77        0.581        0.669
 3 AKR1C3             1.64e-67       3.67e-75        0.554        0.584
 4 SELENBP1           1.82e-74       1.53e-77        0.473        0.573
 5 PRELP              2.09e-74       1.55e-77        0.468        0.619
 6 TSPY1              1.19e-30       1.13e-21        0.468        0.416
 7 LOC100271702       1.69e-74       1.52e-77        0.467        0.608
 8 LOC150622          1.87e-74       1.52e-77        0.461        0.547
 9 S100A16            1.67e-74       1.52e-77        0.454        0.582
10 GPNMB              1.67e-74       1.52e-77        0.438        0.559
# ... with 849 more rows
…
> "LuminalA"
[1] "LuminalA"

> significant_genes_LuminalA =  compareTwoCategories(processedNormal, 
+                                             normalBreast, 
+                                             processedLuminalA,
+                                             LuminalA, .05, "LuminalA_diff")
Joining, by = "Gene"
[1] "ALPHA 0.000420168067226891"
# A tibble: 29 x 2
   Gene       p_value
   <chr>        <dbl>
 1 MIR100    0.000400
 2 SYCP2     0.000400
 3 PLEKHG7   0.000400
 4 HMGA1P7   0.000400
 5 CDH26     0.000400
 6 TIGIT     0.000400
 7 LOC727677 0.000400
 8 ZMYND17   0.000400
 9 OR2S2     0.000400
10 ALDH1A1   0.000400
# ... with 19 more rows
…
> write_tsv(
+   confirm_gwas_genes,
+   'out/confirm_gwas_genes.tsv'
+ )

> write_tsv(
+   subtypes_gwas_genes,
+   'out/subtypes_gwas_genes.tsv'
+ )

> subtypes_gwas_genes
# A tibble: 672 x 5
   Category Accession  Patient_ID        Gene       Value
   <fct>    <chr>      <chr>             <chr>      <dbl>
 1 Normal   GSM4201284 9992576115_R01C01 ABCA8      0.488
 2 Normal   GSM4201284 9992576115_R01C01 CUX2       0.405
 3 Normal   GSM4201284 9992576115_R01C01 CYP1B1-AS1 0.584
 4 Normal   GSM4201284 9992576115_R01C01 FGD2       0.503
 5 Normal   GSM4201284 9992576115_R01C01 FGF13      0.432
 6 Normal   GSM4201284 9992576115_R01C01 HORMAD2    0.478
 7 Normal   GSM4201284 9992576115_R01C01 LRRC25     0.302
 8 Normal   GSM4201284 9992576115_R01C01 MARK2P9    0.210
 9 Normal   GSM4201284 9992576115_R01C01 MCHR2      0.282
10 Normal   GSM4201284 9992576115_R01C01 MTMR11     0.343
# ... with 662 more rows
…
