…
> processed_test_normal = process_data(normal_test_data, 'Normal')

> processed_general = process_data(general_test_data, 'General')

> "Compare First Dataset to Normal"
[1] "Compare First Dataset to Normal"

> general_vs_normal = compareTwo(processed_test_normal, processed_general)

> general_vs_normal = rename(general_vs_normal, general_diff = diff)

> significant_genes_test_1 = compareTwoCategories(processed_test_normal, normal_test_data, processed_general, general_test_data, .01, "general_diff")
[1] "ALPHA 9.42507068803016e-06"
# A tibble: 1,060 x 3
   Gene          p_value general_diff
   <chr>           <dbl>        <dbl>
 1 MIR21        1.69e-74        0.607
 2 DM119512     1.82e-74        0.581
 3 AKR1C3       1.64e-67        0.554
 4 SELENBP1     1.82e-74        0.473
 5 PRELP        2.09e-74        0.468
 6 TSPY1        1.19e-30        0.468
 7 LOC100271702 1.69e-74        0.467
 8 LOC150622    1.87e-74        0.461
 9 S100A16      1.67e-74        0.454
10 GPNMB        1.67e-74        0.438
# ... with 1,050 more rows
…
> confirm_test_data = mutate(raw_confirm, Category = 'Confirm')

> processed_confirm = process_data(confirm_test_data, 'Confirm')

> "Compare Second Dataset to Normal"
[1] "Compare Second Dataset to Normal"

> confirm_vs_normal = compareTwo(processed_test_normal, processed_confirm)

> confirm_vs_normal = rename(confirm_vs_normal, confirm_diff = diff)

> significant_genes_test_2 =  compareTwoCategories(processed_test_normal, normal_test_data, processed_confirm, confirm_test_data, .01, "confirm_diff")
[1] "ALPHA 8.01282051282051e-06"
# A tibble: 1,248 x 3
   Gene          p_value confirm_diff
   <chr>           <dbl>        <dbl>
 1 MIR21        1.55e-77        0.678
 2 DM119512     1.65e-77        0.669
 3 PRELP        1.55e-77        0.619
 4 LOC100271702 1.52e-77        0.608
 5 AKR1C3       3.67e-75        0.584
 6 S100A16      1.52e-77        0.582
 7 HRCT1        1.52e-77        0.575
 8 SELENBP1     1.53e-77        0.573
 9 GPNMB        1.52e-77        0.559
10 ANXA9        1.53e-77        0.557
# ... with 1,238 more rows
> "Combine Results"
[1] "Combine Results"

> significant_genes_test_1 = rename(significant_genes_test_1, p_value_test_1 = p_value)

> significant_genes_test_2 = rename(significant_genes_test_2, p_value_test_2 = p_value)

> joined_final_results = inner_join(significant_genes_test_1,significant_genes_test_2)

> joined = inner_join(joined_final_results, general_vs_normal)

> joined_final_results_confirmation_test = inner_join(joined, confirm_vs_normal)

> print(joined_final_results_confirmation_test)
# A tibble: 859 x 5
   Gene         p_value_test_1 general_diff p_value_test_2 confirm_diff
   <chr>                 <dbl>        <dbl>          <dbl>        <dbl>
 1 MIR21              1.69e-74        0.607       1.55e-77        0.678
 2 DM119512           1.82e-74        0.581       1.65e-77        0.669
 3 AKR1C3             1.64e-67        0.554       3.67e-75        0.584
 4 SELENBP1           1.82e-74        0.473       1.53e-77        0.573
 5 PRELP              2.09e-74        0.468       1.55e-77        0.619
 6 TSPY1              1.19e-30        0.468       1.13e-21        0.416
 7 LOC100271702       1.69e-74        0.467       1.52e-77        0.608
 8 LOC150622          1.87e-74        0.461       1.52e-77        0.547
 9 S100A16            1.67e-74        0.454       1.52e-77        0.582
10 GPNMB              1.67e-74        0.438       1.52e-77        0.559
# ... with 849 more rows
…
> write_tsv(compared_to_large, 'out/compated_to_large_not_her2.tsv')

> "Each SUBTYPE VS LARGE NORMAL DATASET"
[1] "Each SUBTYPE VS LARGE NORMAL DATASET"

> "TN"
[1] "TN"

> significant_genes_TN_large_dataset =  compareTwoCategories(processed_test_normal, 
+                                             normal_test_data, 
+                                             processedTN,
+                                             TN, .05, "TN_diff")
[1] "ALPHA 4.29184549356223e-05"
# A tibble: 959 x 3
   Gene        p_value TN_diff
   <chr>         <dbl>   <dbl>
 1 MIR21    0.00000178   0.667
 2 PRELP    0.00000178   0.619
 3 GPNMB    0.00000178   0.607
 4 OR2T3    0.00000178   0.606
 5 DM119512 0.00000178   0.602
 6 AKR1C3   0.00000178   0.590
 7 OR2T34   0.00000178   0.589
 8 FAM180A  0.00000178   0.589
 9 OR2G2    0.00000178   0.586
10 OR10X1   0.00000178   0.581
# ... with 949 more rows

> "HER2"
[1] "HER2"

> significant_genes_HER2_large_dataset =  compareTwoCategories(processed_test_normal, 
+                                             normal_test_data, 
+                                             processedHER2,
+                                             HER2, .05, "HER2_diff")
[1] "ALPHA 4.72143531633617e-05"
# A tibble: 878 x 3
   Gene            p_value HER2_diff
   <chr>             <dbl>     <dbl>
 1 MIR21        0.00000178     0.693
 2 DM119512     0.00000178     0.670
 3 GPNMB        0.00000178     0.542
 4 C6orf62      0.00000178     0.541
 5 HRCT1        0.00000178     0.540
 6 FAM180A      0.00000178     0.534
 7 LOC100271702 0.00000178     0.522
 8 SELENBP1     0.00000178     0.514
 9 AKR1C3       0.00000178     0.509
10 LOC150622    0.00000178     0.499
# ... with 868 more rows

> "LuminalA"
[1] "LuminalA"

> significant_genes_LuminalA_large_dataset =  compareTwoCategories(processed_test_normal, 
+                                             normal_test_data, 
+                                             processedLuminalA,
+                                             LuminalA, .05, "LuminalA_diff")
[1] "ALPHA 3.70919881305638e-05"
# A tibble: 1,195 x 3
   Gene         p_value LuminalA_diff
   <chr>          <dbl>         <dbl>
 1 MIR21    0.000000433         0.662
 2 DM119512 0.000000433         0.640
 3 AKR1C3   0.000000433         0.602
 4 CD1C     0.000000433         0.545
 5 FCRL2    0.000000448         0.542
 6 PRELP    0.000000433         0.528
 7 C6orf62  0.000000433         0.520
 8 OR2T3    0.000000433         0.506
 9 C9orf29  0.000000433         0.505
10 GPNMB    0.000000433         0.503
# ... with 1,185 more rows

> "LuminalB"
[1] "LuminalB"

> significant_genes_LuminalB_large_dataset =  compareTwoCategories(processed_test_normal, 
+                                             normal_test_data, 
+                                             processedLuminalB,
+                                             LuminalB, .05, "LuminalB_diff")
[1] "ALPHA 2.49376558603491e-05"
# A tibble: 1,849 x 3
   Gene        p_value LuminalB_diff
   <chr>         <dbl>         <dbl>
 1 MIR21    0.00000178         0.698
 2 FCRL2    0.00000178         0.664
 3 DM119512 0.00000178         0.663
 4 CD5L     0.00000178         0.614
 5 AKR1C3   0.00000178         0.589
 6 OR6Y1    0.00000178         0.581
 7 CD1C     0.00000178         0.574
 8 GPNMB    0.00000178         0.572
 9 PRELP    0.00000178         0.570
10 ITIH2    0.00000178         0.569
# ... with 1,839 more rows

> "luminalHER2"
[1] "luminalHER2"

> significant_genes_luminalHER2_large_dataset =  compareTwoCategories(processed_test_normal, 
+                                             normal_test_data, 
+                                             processedLuminalHER2,
+                                             luminalHER2, .05, "luminalHER2_diff")                                            
[1] "ALPHA 2.81214848143982e-05"
# A tibble: 1,540 x 3
   Gene            p_value luminalHER2_diff
   <chr>             <dbl>            <dbl>
 1 MIR21        0.00000178            0.750
 2 DM119512     0.00000178            0.716
 3 AKR1C3       0.00000178            0.608
 4 PRELP        0.00000178            0.570
 5 AK097585     0.00000178            0.568
 6 CD1C         0.00000178            0.539
 7 LOC100271702 0.00000178            0.528
 8 C9orf29      0.00000178            0.527
 9 C6orf62      0.00000178            0.518
10 ABCA8        0.00000178            0.514
# ... with 1,530 more rows
…
> "LuminalA"
[1] "LuminalA"

> significant_genes_LuminalA =  compareTwoCategories(processedNormal, 
+                                             normalBreast, 
+                                             processedLuminalA,
+                                             LuminalA, .05, "LuminalA_diff")
[1] "ALPHA 0.000420168067226891"
# A tibble: 29 x 3
   Gene       p_value LuminalA_diff
   <chr>        <dbl>         <dbl>
 1 MIR100    0.000400         0.364
 2 SYCP2     0.000400         0.360
 3 PLEKHG7   0.000400         0.324
 4 HMGA1P7   0.000400         0.319
 5 CDH26     0.000400         0.309
 6 TIGIT     0.000400         0.307
 7 LOC727677 0.000400         0.307
 8 ZMYND17   0.000400         0.304
 9 OR2S2     0.000400         0.302
10 ALDH1A1   0.000400         0.302
# ... with 19 more rows
…
> LuminalB_NORMAL_GWAS = compareTwo(processedLuminalB, processedNormal)

> LuminalHER2_NORMAL_GWAS = compareTwo(processedLuminalHER2, processedNormal)

> InVitro_NORMAL_GWAS = compareTwo(processedInVitro, processedNormal)

> #TODO OUT THESE TO A FILE
> 
> print(unique(pull(subtypes_gwas_genes, Category)))
[1] Normal       Luminal A    Luminal B    Luminal-HER2 HER2        
[6] TN           In Vitro    
Levels: HER2 In Vitro Luminal-HER2 Luminal A Luminal B Normal TN

> print(processedAllSubTypeDataSetGWAS)
# A tibble: 98 x 10
   Gene       average median Category   min   max    Q1    Q3     var    IQR
   <chr>        <dbl>  <dbl> <chr>    <dbl> <dbl> <dbl> <dbl>   <dbl>  <dbl>
 1 CYP1B1-AS1   0.616  0.626 HER2     0.512 0.714 0.551 0.676 0.00578 0.124 
 2 HORMAD2      0.615  0.598 HER2     0.487 0.758 0.562 0.680 0.00761 0.118 
 3 FGD2         0.534  0.533 HER2     0.370 0.714 0.473 0.613 0.0138  0.140 
 4 RAP1GAP2     0.514  0.501 HER2     0.377 0.675 0.454 0.595 0.0109  0.141 
 5 PAX9         0.517  0.488 HER2     0.385 0.702 0.452 0.570 0.0123  0.119 
 6 LRRC25       0.480  0.479 HER2     0.307 0.614 0.401 0.602 0.0151  0.201 
 7 MCHR2        0.513  0.469 HER2     0.373 0.757 0.427 0.578 0.0164  0.151 
 8 CUX2         0.438  0.466 HER2     0.319 0.520 0.399 0.485 0.00564 0.0858
 9 ABCA8        0.459  0.465 HER2     0.302 0.615 0.355 0.558 0.0135  0.204 
10 FGF13        0.445  0.452 HER2     0.345 0.502 0.417 0.485 0.00282 0.0688
# ... with 88 more rows

> test_data = rbind(subtypes_gwas_genes, normal_test_data %>% mutate(Accession = "") %>% mutate(Category = "LargeNormal"))

> print(test_data)
# A tibble: 3,178 x 5
   Category Accession  Patient_ID        Gene       Value
   <fct>    <chr>      <chr>             <chr>      <dbl>
 1 Normal   GSM4201284 9992576115_R01C01 ABCA8      0.488
 2 Normal   GSM4201284 9992576115_R01C01 CUX2       0.405
 3 Normal   GSM4201284 9992576115_R01C01 CYP1B1-AS1 0.584
 4 Normal   GSM4201284 9992576115_R01C01 FGD2       0.503
 5 Normal   GSM4201284 9992576115_R01C01 FGF13      0.432
 6 Normal   GSM4201284 9992576115_R01C01 HORMAD2    0.478
 7 Normal   GSM4201284 9992576115_R01C01 LRRC25     0.302
 8 Normal   GSM4201284 9992576115_R01C01 MARK2P9    0.210
 9 Normal   GSM4201284 9992576115_R01C01 MCHR2      0.282
10 Normal   GSM4201284 9992576115_R01C01 MTMR11     0.343
# ... with 3,168 more rows
…
> general_test_data = mutate(raw_general, Category = 'General')

> confirm_test_data = mutate(raw_confirm, Category = 'Confirm')

> "Compare First Dataset to Normal"
[1] "Compare First Dataset to Normal"

> general_vs_normal_all = compareTwo(processed_test_normal, processed_general, 0)

> general_vs_normal_all = rename(general_vs_normal_all, general_diff = diff)

> significant_genes_test_1_all = compareTwoCategories(processed_test_normal, normal_test_data, processed_general, general_test_data, -1, "general_diff", 0)
[1] "ALPHA 100"
# A tibble: 22,579 x 3
   Gene          p_value general_diff
   <chr>           <dbl>        <dbl>
 1 MIR21        1.69e-74        0.607
 2 DM119512     1.82e-74        0.581
 3 AKR1C3       1.64e-67        0.554
 4 SELENBP1     1.82e-74        0.473
 5 PRELP        2.09e-74        0.468
 6 TSPY1        1.19e-30        0.468
 7 LOC100271702 1.69e-74        0.467
 8 LOC150622    1.87e-74        0.461
 9 S100A16      1.67e-74        0.454
10 GPNMB        1.67e-74        0.438
# ... with 22,569 more rows

> #Confirm Results
> 
> "Compare Second Dataset to Normal"
[1] "Compare Second Dataset to Normal"

> confirm_vs_normal_all = compareTwo(processed_test_normal, processed_confirm, 0)

> confirm_vs_normal_all = rename(confirm_vs_normal_all, confirm_diff = diff)

> significant_genes_test_2_all =  compareTwoCategories(processed_test_normal, normal_test_data, processed_confirm, confirm_test_data, -1, "confirm_diff", 0)
[1] "ALPHA 100"
# A tibble: 22,579 x 3
   Gene          p_value confirm_diff
   <chr>           <dbl>        <dbl>
 1 MIR21        1.55e-77        0.678
 2 DM119512     1.65e-77        0.669
 3 PRELP        1.55e-77        0.619
 4 LOC100271702 1.52e-77        0.608
 5 AKR1C3       3.67e-75        0.584
 6 S100A16      1.52e-77        0.582
 7 HRCT1        1.52e-77        0.575
 8 SELENBP1     1.53e-77        0.573
 9 GPNMB        1.52e-77        0.559
10 ANXA9        1.53e-77        0.557
# ... with 22,569 more rows
…
